{
    "name": "Mystery collection",
    "symbol": "MC",
    "description": "Blind box for mystery collection",
    "seller_fee_basis_points": 500,
    "image": "https://arweave.net/3XI9ot8nh7mIRiVsitgRsf-fdbDRLdVnrwwFJUXk9o4",
    "attributes": [
        {"trait_type": "Layer-1", "value": "0"},
        {"trait_type": "Layer-2", "value": "0"}, 
        {"trait_type": "Layer-3", "value": "0"},
        {"trait_type": "Layer-4", "value": "0"}
    ],
    "properties": {
        "creators": [{"address": "5SPnFYpR8h7JvpUoWzWrwYSRC8unFpGhHnkEAb3ESPS5", "share": 100}],
        "files": [{"uri": "https://arweave.net/fApjfxeHVmhOFa5iOgzgtib64Of_nXc2In5TpXZnXWQ", "type": "image/png"}]
    },
    "creators": [
        {
            "address": "5SPnFYpR8h7JvpUoWzWrwYSRC8unFpGhHnkEAb3ESPS5",
            "verified": false,
            "share": 100
        }
    ],
    "collection": null
}
